{
	"application_folder": "vrp-hub",
	"application_name": "vrp-hub.exe",
	"download_url": "http://10.30.37.132:19005/downloads/vrp",
	"download_file": "vrp-hub-win",
	"auto_close": true,
	"gui": true
}