{
	"_type": "export",
	"__export_format": 3,
	"__export_date": "2018-11-10T11:10:07.550Z",
	"__export_source": "insomnia.desktop.app:v6.2.0",
	"resources": [
		{
			"_id": "wrk_098cf67eff4d4732806ec1d12731ee37",
			"created": 1536986849565,
			"description": "",
			"modified": 1536986849565,
			"name": "vrp-web-gate",
			"parentId": null,
			"_type": "workspace"
		},
		{
			"_id": "env_371801fe37d3425b905ffc71b4c3409d",
			"color": null,
			"created": 1536986849664,
			"data": {},
			"isPrivate": false,
			"metaSortKey": 1536986849664,
			"modified": 1536986849664,
			"name": "New Environment",
			"parentId": "wrk_098cf67eff4d4732806ec1d12731ee37",
			"_type": "environment"
		},
		{
			"_id": "jar_23b58fc9377e4832be09c9c5dc33fce2",
			"cookies": [],
			"created": 1536986849690,
			"modified": 1536986849690,
			"name": "Default Jar",
			"parentId": "wrk_098cf67eff4d4732806ec1d12731ee37",
			"_type": "cookie_jar"
		},
		{
			"_id": "req_34ff44e6ad2943c2bfde4c76ad5a325c",
			"authentication": {},
			"body": {},
			"created": 1537936994678,
			"description": "",
			"headers": [],
			"isPrivate": false,
			"metaSortKey": -1537936994678,
			"method": "GET",
			"modified": 1541685081234,
			"name": "osrm запрос маршрута",
			"parameters": [],
			"parentId": "wrk_098cf67eff4d4732806ec1d12731ee37",
			"settingDisableRenderRequestBody": false,
			"settingEncodeUrl": true,
			"settingMaxTimelineDataSize": 1000,
			"settingRebuildPath": true,
			"settingSendCookies": true,
			"settingStoreCookies": true,
			"url": "http://10.30.37.92:5000/route/v1/driving/60.754581,56.758808;80.351479,67.875305?overview=false",
			"_type": "request"
		},
		{
			"_id": "req_aebf386e51f94ac29575767ccd025221",
			"authentication": {},
			"body": {},
			"created": 1538051188665,
			"description": "",
			"headers": [],
			"isPrivate": false,
			"metaSortKey": -1538051188665,
			"method": "GET",
			"modified": 1541744416843,
			"name": "osrm таблица дистанций",
			"parameters": [],
			"parentId": "wrk_098cf67eff4d4732806ec1d12731ee37",
			"settingDisableRenderRequestBody": false,
			"settingEncodeUrl": true,
			"settingMaxTimelineDataSize": 1000,
			"settingRebuildPath": true,
			"settingSendCookies": true,
			"settingStoreCookies": true,
			"url": "http://10.30.37.92:5000/table/v1/driving/60.754581,56.758808;69.024570,61.008295;77.759348,64.907589;76.693587,64.479817;69.054897,60.979950;78.726726,67.476249;77.780557,64.912745;76.689436,66.083971;73.401090,61.237008;74.476356,65.850451;75.444326,63.202616;68.996848,61.003358;72.630021,61.085780;78.709927,67.476559;69.334246,59.593223;74.499514,65.856466;69.036626,60.982756;76.652471,66.081043;73.440248,61.249915;69.922158,60.054922;78.705400,67.468095;69.046947,61.012591;71.905414,61.001661;77.763255,64.908913;71.916642,60.996641;74.492894,65.856878;76.500494,64.432625;76.696865,66.088749;72.608336,61.066525;76.431263,64.441228;72.778989,60.748118;74.492229,62.264240;77.779909,64.915144;77.768645,64.910392;75.453013,63.201181;72.619924,61.093266;74.514920,63.789048;74.504698,63.793005;71.905297,60.997810;72.164586,61.624879;72.607195,61.088508;71.884689,60.993234;72.783220,60.753016;76.508318,64.436017;72.153321,61.619696;75.973636,63.720906;75.450273,63.192030;78.720527,67.469359;73.408501,61.272743;78.710313,67.464394;76.465037,64.433968;74.491376,62.260786;74.548410,62.266447;68.937775,59.129692;76.452847,64.440333;78.722108,67.472443;76.598273,64.451225;78.193899,65.930260;78.715326,67.483134;73.719615,61.609632;78.706046,67.467471;78.709020,67.464614;73.373970,61.265149;76.659765,66.080584;75.446976,63.202207;72.513339,65.531764;72.599721,61.096923;76.686714,66.118265;72.790002,60.754044;78.368882,65.963803;72.167811,61.617695;73.409604,61.269480;73.384822,61.265797;75.440607,63.206643;76.495704,64.438338;77.735345,64.912501;72.527616,65.536459;72.580389,61.105524;76.515702,64.432761;73.426522,61.253840;78.712200,67.471051;72.829493,60.764648;73.723145,61.609324;72.640190,61.094475;75.454738,63.201075;78.716988,67.471327;72.515819,65.530356;73.401800,61.238726;72.504949,65.537101;77.781051,64.913104;73.400174,61.251945;78.720240,67.468925;73.535278,65.446533;72.607240,61.085380;78.698570,67.464223;76.470319,64.433231;75.455987,63.195462;73.389915,61.262294;78.721803,67.477569;68.988425,59.137247;76.682825,66.112224;72.559021,65.526827;69.927528,60.059421;68.949291,59.146439;73.428184,61.252412;77.778482,64.918671;73.412966,61.251161;75.439251,63.205475;71.904735,61.001698;71.447281,60.055497;72.545086,65.528567;69.052346,61.015346;74.488986,62.260581;73.432792,61.251858;78.718757,67.470038;72.613699,61.080259;78.710789,67.484577;72.586875,61.092640;69.020662,60.969303;72.631045,61.092892;78.989932,67.362165;69.919705,60.061021;76.661580,66.081043;77.754317,64.913272;75.444138,63.185177;78.709235,67.476625;78.378368,65.968465;69.146391,61.027055;75.966645,63.723858;75.420862,63.201858;78.705346,67.464535;75.460891,63.211322;72.545481,65.527278;72.787864,60.757174;72.531341,65.535924;69.045420,60.968084;75.474995,63.208257;71.462876,60.071528;78.086784,66.017125;72.603099,61.097297;75.450965,63.201789;78.719144,67.475709;78.714841,67.476749;72.851214,60.752053;69.918160,60.058089;71.451307,60.057592;73.461915,61.239272;72.535824,65.537340;78.717464,67.472016;76.676644,66.112213;68.894009,59.144035;69.061033,61.037217;72.535348,65.529245;74.490082,63.795177;72.513968,65.538267;76.674336,66.099286;75.467988,63.200678;76.675036,66.113222;77.787223,64.921645;70.004264,59.551108;74.466492,62.258491;69.925392,60.064057;78.084583,66.014237;74.518523,63.785913;73.405043,61.254177;76.505919,64.430579;78.715128,67.472550;73.383259,61.287624;72.599676,61.095732;72.619808,61.085502;75.461790,63.200256;74.524793,63.783851;74.518720,63.790164;79.013836,67.366037;72.504940,65.532557;75.938588,63.718409;76.723775,64.487399;78.706487,67.466175;74.495436,62.256473;69.991245,59.546205;76.719109,66.137866;72.617975,61.097737;73.441380,61.255458;72.812945,60.748320;75.454307,63.196630;69.923263,60.053714;69.101479,61.023933;69.997769,59.544149;76.625566,66.088958;76.710214,64.481766;71.910785,61.002639;78.997289,67.360569;68.946192,59.145549;72.617202,61.097793;71.471464,60.077018;78.370930,65.959443;73.428282,61.256687;75.441407,63.196066;78.725162,67.475826;74.514983,63.787693;77.748793,64.916036;76.669323,66.085987;69.129341,58.937127;72.550844,65.525292;69.137514,58.944482;69.037784,60.986178;69.028918,60.987461;72.799336,60.740370;72.508659,65.536334;75.429423,63.184535;73.403300,61.264011;69.042384,60.967394;72.779995,60.760048;80.351481,67.875308;76.501652,64.436048;72.522331,65.541756;69.942756,60.059957;71.470844,60.077490;74.539696,62.238694;76.692239,66.085753;78.716359,67.472839;76.673033,66.089665;73.391523,61.261191;78.190871,65.928129;72.598697,61.087820;74.561229,62.251401;72.612262,61.080325;71.907444,60.987980;78.371487,65.967165;75.439278,63.191401;76.693604,64.477108;72.636301,61.093179;76.630444,66.131947;72.515010,65.540352;73.484643,61.241510;76.686562,64.478298;76.662065,66.083519;76.627605,66.081120;69.152814,61.029094;78.086317,66.015308;73.725077,61.604293;77.783337,64.909796;78.385060,65.969116;72.555610,65.528067;74.495696,63.796957;69.018902,61.003180;76.678791,66.086231;76.666143,66.083085;69.026726,60.967154;72.545697,65.526164;75.956690,63.726043;72.611345,61.071909;74.487297,65.857261;78.703756,67.469373;69.136572,58.937345;75.412266,63.195348;74.495714,63.793533;76.504051,64.433638;74.487558,65.853921;71.910855,61.004031;69.015003,60.977204;77.760057,64.908573;73.416362,61.246812;76.668883,66.083697;73.400641,61.266040;76.691718,66.086741;76.695751,64.473741;72.510357,65.531045;78.686677,67.467011;72.833687,60.756647;72.538088,65.528210;78.718686,67.476497;73.416236,61.264305;75.469892,63.199676;69.122415,58.942629;79.004449,67.366809;74.488833,65.853703;69.041342,61.004601;69.139366,58.938487;72.844916,60.760536;73.418688,61.255575;72.836526,60.758589;78.718623,67.469718;72.628261,61.083327;72.514893,65.537138;73.434301,61.240709;78.700189,67.466089;75.432945,63.188346;77.779623,64.920280;75.466398,63.202162;75.454858,63.187022;72.517984,65.539477;69.040821,61.011339;78.712433,67.474954;74.492696,62.263462;70.828159,59.797726;72.534629,65.529502;76.501096,64.433568;78.835824,67.312524;74.492615,63.795543;72.599622,61.099859;78.706469,67.465272;71.473129,60.073545;76.675270,66.083832;75.960957,63.724813;74.542373,63.789922;74.495256,65.854476;73.452375,61.249089;76.658849,66.085101;72.604213,61.111471;74.536086,63.782161;74.494304,65.858732;77.783441,64.907582;76.690469,64.479461;74.491232,65.858276;78.079507,66.021796;78.718488,67.466299;78.712101,67.475464;74.535222,62.243584;72.797899,60.749019;76.683939,66.117996;78.711840,67.477193;77.771691,64.913230;78.369133,65.958374;74.504871,63.794827;77.784932,64.923821;76.676182,66.124086;71.905282,60.997219;74.480029,62.273497;69.040030,60.966058;73.402797,61.282364;69.920577,60.061408;72.614750,61.099154;69.049400,61.001500;75.939109,63.718867;76.691763,66.113772;72.625027,61.074376;75.397497,63.202843;71.901535,60.998377;72.155478,61.625438;73.397030,61.266416;73.488523,61.249110;69.937348,60.060433;71.465369,60.070957;76.671201,66.086154;76.512513,64.431977;74.505020,65.857700;71.896601,60.993657;74.507725,63.791682;76.628746,66.078443;73.438523,61.253031;72.525224,65.533008;72.588079,61.105959;78.707645,67.489431;78.712532,67.470693;69.152361,61.035542;76.646578,66.132741;74.498930,65.858964;78.997882,67.360043;73.446797,61.250980;69.009496,61.005264;71.929848,61.002578;69.011778,61.002617;77.775104,64.923764;78.703297,67.470741;76.517499,64.436468;69.157287,58.943599;71.470467,60.078284;72.614391,61.081747;74.484935,62.265141;68.998294,61.005277;70.000248,59.547802;78.726007,67.474958;74.561238,62.251426;72.633764,61.082283;75.957992,63.725087;73.384310,61.256570;76.677111,66.121749;74.490684,65.852714;72.551275,65.521667;73.437670,61.254104;72.779043,60.752690;72.859155,60.753873;72.790191,60.749336;69.934573,60.059337;78.711041,67.478392;72.621613,61.094797;78.711517,67.476280;76.491169,64.435416;69.522830,60.970429?annotations=distance",
			"_type": "request"
		},
		{
			"_id": "req_ec729a36ca3f47a9ab863427b15a21a6",
			"authentication": {},
			"body": {
				"mimeType": "application/json",
				"text": "{\n\t\"settings\":\n\t{\n\t\t\"show_all_results\": true,\n\t\t\"num_solutions\": 10,\n\t\t\"duration\": 5,\n\t\t\"num_iterations\": 100\n\t},\n  \"points\": [\n    {\n      \"city\": \"1c0c7a07-d6d3-11e8-80d7-00155db4d016\",\n      \"lat\": 56.758801,\n      \"lon\": 60.754581\n    },\n    {\n      \"city\": \"753fc985-d6d8-11e8-80d7-00155db4d016\",\n      \"lat\": 55.046156,\n      \"lon\": 60.102224,\n      \"time_delayed\": 1800,\n      \"time_discharge\": 720,\n      \"time_from\": 28800,\n      \"time_to\": 75600,\n      \"weight\": 13.864,\n      \"volume\": 0.216\n    },\n    {\n      \"city\": \"753fc562-d6d8-11e8-80d7-00155db4d016\",\n      \"lat\": 55.1332,\n      \"lon\": 61.432432,\n      \"time_delayed\": 1800,\n      \"time_discharge\": 720,\n      \"time_from\": 36000,\n      \"time_to\": 61200,\n      \"weight\": 14.054,\n      \"volume\": 0.253\n    },\n    {\n      \"city\": \"753fc562-d6d8-11e8-80d7-00155db4d016\",\n      \"lat\": 55.175118,\n      \"lon\": 61.434965,\n      \"time_delayed\": 1800,\n      \"time_discharge\": 720,\n      \"time_from\": 32400,\n      \"time_to\": 82800,\n      \"weight\": 9.623,\n      \"volume\": 0.115\n    },\n    {\n      \"city\": \"753fcd62-d6d8-11e8-80d7-00155db4d016\",\n      \"lat\": 55.03507,\n      \"lon\": 58.9712,\n      \"time_delayed\": 1800,\n      \"time_discharge\": 720,\n      \"time_from\": 28800,\n      \"time_to\": 75600,\n      \"weight\": 17.981,\n      \"volume\": 0.149\n    },\n    {\n      \"city\": \"753fc562-d6d8-11e8-80d7-00155db4d016\",\n      \"lat\": 55.243582,\n      \"lon\": 61.398385,\n      \"time_delayed\": 1800,\n      \"time_discharge\": 720,\n      \"time_from\": 28800,\n      \"time_to\": 75600,\n      \"weight\": 11.346,\n      \"volume\": 0.176\n    },\n    {\n      \"city\": \"753fc562-d6d8-11e8-80d7-00155db4d016\",\n      \"lat\": 55.121448,\n      \"lon\": 61.445295,\n      \"time_delayed\": 1800,\n      \"time_discharge\": 720,\n      \"time_from\": 28800,\n      \"time_to\": 75600,\n      \"weight\": 89.335,\n      \"volume\": 0.863\n    },\n    {\n      \"city\": \"766f2497-cc67-11e8-80d6-00155db4d016\",\n      \"lat\": 55.972542,\n      \"lon\": 60.771974,\n      \"time_delayed\": 1800,\n      \"time_discharge\": 720,\n      \"time_from\": 28800,\n      \"time_to\": 75600,\n      \"weight\": 387.447,\n      \"volume\": 1.9\n    },\n    {\n      \"city\": \"753fc562-d6d8-11e8-80d7-00155db4d016\",\n      \"lat\": 55.184435,\n      \"lon\": 61.320245,\n      \"time_delayed\": 1800,\n      \"time_discharge\": 720,\n      \"time_from\": 32400,\n      \"time_to\": 64800,\n      \"weight\": 0,\n      \"volume\": 0\n    },\n    {\n      \"city\": \"753fc562-d6d8-11e8-80d7-00155db4d016\",\n      \"lat\": 55.122035,\n      \"lon\": 61.516909,\n      \"time_delayed\": 1800,\n      \"time_discharge\": 720,\n      \"time_from\": 28800,\n      \"time_to\": 64800,\n      \"weight\": 17.859,\n      \"volume\": 0.164\n    },\n    {\n      \"city\": \"753fcd3e-d6d8-11e8-80d7-00155db4d016\",\n      \"lat\": 55.706376,\n      \"lon\": 60.540126,\n      \"time_delayed\": 1800,\n      \"time_discharge\": 720,\n      \"time_from\": 36000,\n      \"time_to\": 68400,\n      \"weight\": 3.456,\n      \"volume\": 0.026\n    },\n    {\n      \"city\": \"753fc985-d6d8-11e8-80d7-00155db4d016\",\n      \"lat\": 55.047899,\n      \"lon\": 60.117037,\n      \"time_delayed\": 1800,\n      \"time_discharge\": 720,\n      \"time_from\": 28800,\n      \"time_to\": 75600,\n      \"weight\": 121.6,\n      \"volume\": 1.389\n    },\n    {\n      \"city\": \"753fc562-d6d8-11e8-80d7-00155db4d016\",\n      \"lat\": 55.208759,\n      \"lon\": 61.288872,\n      \"time_delayed\": 1800,\n      \"time_discharge\": 720,\n      \"time_from\": 36000,\n      \"time_to\": 61200,\n      \"weight\": 88.769,\n      \"volume\": 0.863\n    },\n    {\n      \"city\": \"753fc978-d6d8-11e8-80d7-00155db4d016\",\n      \"lat\": 55.122009,\n      \"lon\": 59.722021,\n      \"time_delayed\": 1800,\n      \"time_discharge\": 720,\n      \"time_from\": 28800,\n      \"time_to\": 75600,\n      \"weight\": 38.544,\n      \"volume\": 0.149\n    },\n    {\n      \"city\": \"753fc978-d6d8-11e8-80d7-00155db4d016\",\n      \"lat\": 55.174146,\n      \"lon\": 59.670763,\n      \"time_delayed\": 1800,\n      \"time_discharge\": 720,\n      \"time_from\": 36000,\n      \"time_to\": 79200,\n      \"weight\": 62.424,\n      \"volume\": 0.738\n    },\n    {\n      \"city\": \"753fc562-d6d8-11e8-80d7-00155db4d016\",\n      \"lat\": 55.185276,\n      \"lon\": 61.425182,\n      \"time_delayed\": 1800,\n      \"time_discharge\": 720,\n      \"time_from\": 36000,\n      \"time_to\": 61200,\n      \"weight\": 36.173,\n      \"volume\": 0.207\n    },\n    {\n      \"city\": \"753fc562-d6d8-11e8-80d7-00155db4d016\",\n      \"lat\": 55.182721,\n      \"lon\": 61.441325,\n      \"time_delayed\": 1800,\n      \"time_discharge\": 720,\n      \"time_from\": 28800,\n      \"time_to\": 75600,\n      \"weight\": 15.783,\n      \"volume\": 0.202\n    },\n    {\n      \"city\": \"753fc562-d6d8-11e8-80d7-00155db4d016\",\n      \"lat\": 55.155834,\n      \"lon\": 61.376619,\n      \"time_delayed\": 1800,\n      \"time_discharge\": 720,\n      \"time_from\": 28800,\n      \"time_to\": 75600,\n      \"weight\": 10.801,\n      \"volume\": 0.23\n    },\n    {\n      \"city\": \"753fc96b-d6d8-11e8-80d7-00155db4d016\",\n      \"lat\": 54.75211,\n      \"lon\": 58.198389,\n      \"time_delayed\": 1800,\n      \"time_discharge\": 720,\n      \"time_from\": 28800,\n      \"time_to\": 75600,\n      \"weight\": 27.5,\n      \"volume\": 0.179\n    },\n    {\n      \"city\": \"753fc562-d6d8-11e8-80d7-00155db4d016\",\n      \"lat\": 55.166881,\n      \"lon\": 61.29224,\n      \"time_delayed\": 1800,\n      \"time_discharge\": 720,\n      \"time_from\": 36000,\n      \"time_to\": 61200,\n      \"weight\": 79.298,\n      \"volume\": 0.625\n    },\n    {\n      \"city\": \"753fc985-d6d8-11e8-80d7-00155db4d016\",\n      \"lat\": 55.077813,\n      \"lon\": 60.092307,\n      \"time_delayed\": 1800,\n      \"time_discharge\": 720,\n      \"time_from\": 28800,\n      \"time_to\": 75600,\n      \"weight\": 16.576,\n      \"volume\": 0.145\n    },\n    {\n      \"city\": \"753fcd62-d6d8-11e8-80d7-00155db4d016\",\n      \"lat\": 55.035013,\n      \"lon\": 58.976923,\n      \"time_delayed\": 1800,\n      \"time_discharge\": 720,\n      \"time_from\": 28800,\n      \"time_to\": 75600,\n      \"weight\": 40.731,\n      \"volume\": 0.465\n    },\n    {\n      \"city\": \"753fc562-d6d8-11e8-80d7-00155db4d016\",\n      \"lat\": 55.188221,\n      \"lon\": 61.333455,\n      \"time_delayed\": 1800,\n      \"time_discharge\": 720,\n      \"time_from\": 32400,\n      \"time_to\": 63000,\n      \"weight\": 9.128,\n      \"volume\": 0.149\n    },\n    {\n      \"city\": \"753fc562-d6d8-11e8-80d7-00155db4d016\",\n      \"lat\": 55.161281,\n      \"lon\": 61.422918,\n      \"time_delayed\": 1800,\n      \"time_discharge\": 720,\n      \"time_from\": 36000,\n      \"time_to\": 64800,\n      \"weight\": 2.52,\n      \"volume\": 0.018\n    },\n    {\n      \"city\": \"753fc985-d6d8-11e8-80d7-00155db4d016\",\n      \"lat\": 55.059755,\n      \"lon\": 60.107183,\n      \"time_delayed\": 1800,\n      \"time_discharge\": 720,\n      \"time_from\": 28800,\n      \"time_to\": 75600,\n      \"weight\": 13.274,\n      \"volume\": 0.199\n    },\n    {\n      \"city\": \"753fc96b-d6d8-11e8-80d7-00155db4d016\",\n      \"lat\": 54.753705,\n      \"lon\": 58.201982,\n      \"time_delayed\": 1800,\n      \"time_discharge\": 720,\n      \"time_from\": 28800,\n      \"time_to\": 75600,\n      \"weight\": 15.513,\n      \"volume\": 0.068\n    },\n    {\n      \"city\": \"753fc562-d6d8-11e8-80d7-00155db4d016\",\n      \"lat\": 55.187424,\n      \"lon\": 61.298017,\n      \"time_delayed\": 1800,\n      \"time_discharge\": 720,\n      \"time_from\": 28800,\n      \"time_to\": 75600,\n      \"weight\": 16.711,\n      \"volume\": 0.165\n    },\n    {\n      \"city\": \"11f37d9e-d74f-11e8-80d7-00155db4d016\",\n      \"lat\": 55.752784,\n      \"lon\": 60.680254,\n      \"time_delayed\": 1800,\n      \"time_discharge\": 720,\n      \"time_from\": 28800,\n      \"time_to\": 75600,\n      \"weight\": 63.603,\n      \"volume\": 0.365\n    },\n    {\n      \"city\": \"753fc93b-d6d8-11e8-80d7-00155db4d016\",\n      \"lat\": 54.892017,\n      \"lon\": 61.4123,\n      \"time_delayed\": 1800,\n      \"time_discharge\": 720,\n      \"time_from\": 28800,\n      \"time_to\": 75600,\n      \"weight\": 95.265,\n      \"volume\": 1.146\n    },\n    {\n      \"city\": \"753fc562-d6d8-11e8-80d7-00155db4d016\",\n      \"lat\": 55.181755,\n      \"lon\": 61.304062,\n      \"time_delayed\": 1800,\n      \"time_discharge\": 720,\n      \"time_from\": 37800,\n      \"time_to\": 66600,\n      \"weight\": 11.534,\n      \"volume\": 0.112\n    },\n    {\n      \"city\": \"753fc562-d6d8-11e8-80d7-00155db4d016\",\n      \"lat\": 55.145313,\n      \"lon\": 61.388567,\n      \"time_delayed\": 1800,\n      \"time_discharge\": 720,\n      \"time_from\": 32400,\n      \"time_to\": 61200,\n      \"weight\": 36.892,\n      \"volume\": 0.207\n    },\n    {\n      \"city\": \"753fc985-d6d8-11e8-80d7-00155db4d016\",\n      \"lat\": 55.050922,\n      \"lon\": 60.12108,\n      \"time_delayed\": 1800,\n      \"time_discharge\": 720,\n      \"time_from\": 28800,\n      \"time_to\": 75600,\n      \"weight\": 53.078,\n      \"volume\": 0.391\n    },\n    {\n      \"city\": \"753fc951-d6d8-11e8-80d7-00155db4d016\",\n      \"lat\": 54.854999,\n      \"lon\": 58.420129,\n      \"time_delayed\": 1800,\n      \"time_discharge\": 720,\n      \"time_from\": 28800,\n      \"time_to\": 75600,\n      \"weight\": 21.973,\n      \"volume\": 0.145\n    },\n    {\n      \"city\": \"753fc562-d6d8-11e8-80d7-00155db4d016\",\n      \"lat\": 55.164243,\n      \"lon\": 61.417636,\n      \"time_delayed\": 1800,\n      \"time_discharge\": 720,\n      \"time_from\": 25200,\n      \"time_to\": 32400,\n      \"weight\": 16.208,\n      \"volume\": 0.218\n    },\n    {\n      \"city\": \"753fcd3e-d6d8-11e8-80d7-00155db4d016\",\n      \"lat\": 55.707121,\n      \"lon\": 60.539713,\n      \"time_delayed\": 1800,\n      \"time_discharge\": 720,\n      \"time_from\": 36000,\n      \"time_to\": 64800,\n      \"weight\": 54.247,\n      \"volume\": 0.544\n    },\n    {\n      \"city\": \"753fc562-d6d8-11e8-80d7-00155db4d016\",\n      \"lat\": 55.156765,\n      \"lon\": 61.375317,\n      \"time_delayed\": 1800,\n      \"time_discharge\": 720,\n      \"time_from\": 28800,\n      \"time_to\": 64800,\n      \"weight\": 19.808,\n      \"volume\": 0.199\n    },\n    {\n      \"city\": \"753fc562-d6d8-11e8-80d7-00155db4d016\",\n      \"lat\": 55.182876,\n      \"lon\": 61.376826,\n      \"time_delayed\": 1800,\n      \"time_discharge\": 720,\n      \"time_from\": 28800,\n      \"time_to\": 75600,\n      \"weight\": 7.88,\n      \"volume\": 0.057\n    },\n    {\n      \"city\": \"753fc978-d6d8-11e8-80d7-00155db4d016\",\n      \"lat\": 55.171488,\n      \"lon\": 59.672641,\n      \"time_delayed\": 1800,\n      \"time_discharge\": 720,\n      \"time_from\": 36000,\n      \"time_to\": 79200,\n      \"weight\": 23.055,\n      \"volume\": 0.194\n    },\n    {\n      \"city\": \"753fc562-d6d8-11e8-80d7-00155db4d016\",\n      \"lat\": 55.168578,\n      \"lon\": 61.375119,\n      \"time_delayed\": 1800,\n      \"time_discharge\": 720,\n      \"time_from\": 39600,\n      \"time_to\": 61200,\n      \"weight\": 21.343,\n      \"volume\": 0.174\n    },\n    {\n      \"city\": \"753fc985-d6d8-11e8-80d7-00155db4d016\",\n      \"lat\": 55.081127,\n      \"lon\": 60.089756,\n      \"time_delayed\": 1800,\n      \"time_discharge\": 720,\n      \"time_from\": 28800,\n      \"time_to\": 75600,\n      \"weight\": 32.654,\n      \"volume\": 0.303\n    },\n    {\n      \"city\": \"753fc562-d6d8-11e8-80d7-00155db4d016\",\n      \"lat\": 55.039445,\n      \"lon\": 61.377823,\n      \"time_delayed\": 1800,\n      \"time_discharge\": 720,\n      \"time_from\": 32400,\n      \"time_to\": 64800,\n      \"weight\": 42.203,\n      \"volume\": 0.263\n    },\n    {\n      \"city\": \"753fc562-d6d8-11e8-80d7-00155db4d016\",\n      \"lat\": 55.179961,\n      \"lon\": 61.29949,\n      \"time_delayed\": 1800,\n      \"time_discharge\": 720,\n      \"time_from\": 28800,\n      \"time_to\": 75600,\n      \"weight\": 12.341,\n      \"volume\": 0.101\n    },\n    {\n      \"city\": \"753fc985-d6d8-11e8-80d7-00155db4d016\",\n      \"lat\": 55.165503,\n      \"lon\": 60.162295,\n      \"time_delayed\": 1800,\n      \"time_discharge\": 720,\n      \"time_from\": 30600,\n      \"time_to\": 63000,\n      \"weight\": 6.626,\n      \"volume\": 0.096\n    },\n    {\n      \"city\": \"753fc562-d6d8-11e8-80d7-00155db4d016\",\n      \"lat\": 55.186623,\n      \"lon\": 61.299598,\n      \"time_delayed\": 1800,\n      \"time_discharge\": 720,\n      \"time_from\": 28800,\n      \"time_to\": 75600,\n      \"weight\": 13.314,\n      \"volume\": 0.106\n    },\n    {\n      \"city\": \"753fc562-d6d8-11e8-80d7-00155db4d016\",\n      \"lat\": 55.154887,\n      \"lon\": 61.40992,\n      \"time_delayed\": 1800,\n      \"time_discharge\": 720,\n      \"time_from\": 28800,\n      \"time_to\": 75600,\n      \"weight\": 14.615,\n      \"volume\": 0.337\n    },\n    {\n      \"city\": \"753fc985-d6d8-11e8-80d7-00155db4d016\",\n      \"lat\": 55.038408,\n      \"lon\": 60.111396,\n      \"time_delayed\": 1800,\n      \"time_discharge\": 720,\n      \"time_from\": 28800,\n      \"time_to\": 75600,\n      \"weight\": 19.842,\n      \"volume\": 0.114\n    },\n    {\n      \"city\": \"753fc944-d6d8-11e8-80d7-00155db4d016\",\n      \"lat\": 55.120995,\n      \"lon\": 61.620781,\n      \"time_delayed\": 1800,\n      \"time_discharge\": 720,\n      \"time_from\": 36000,\n      \"time_to\": 68400,\n      \"weight\": 37.084,\n      \"volume\": 0.55\n    },\n    {\n      \"city\": \"753fc978-d6d8-11e8-80d7-00155db4d016\",\n      \"lat\": 55.125757,\n      \"lon\": 59.721312,\n      \"time_delayed\": 1800,\n      \"time_discharge\": 720,\n      \"time_from\": 28800,\n      \"time_to\": 75600,\n      \"weight\": 20.432,\n      \"volume\": 0.104\n    },\n    {\n      \"city\": \"753fc562-d6d8-11e8-80d7-00155db4d016\",\n      \"lat\": 55.180537,\n      \"lon\": 61.35214,\n      \"time_delayed\": 1800,\n      \"time_discharge\": 720,\n      \"time_from\": 32400,\n      \"time_to\": 64800,\n      \"weight\": 92.042,\n      \"volume\": 0.391\n    },\n    {\n      \"city\": \"753fc951-d6d8-11e8-80d7-00155db4d016\",\n      \"lat\": 54.854646,\n      \"lon\": 58.422662,\n      \"time_delayed\": 1800,\n      \"time_discharge\": 720,\n      \"time_from\": 28800,\n      \"time_to\": 75600,\n      \"weight\": 17.269,\n      \"volume\": 0.234\n    },\n    {\n      \"city\": \"753fc985-d6d8-11e8-80d7-00155db4d016\",\n      \"lat\": 55.058183,\n      \"lon\": 60.109779,\n      \"time_delayed\": 1800,\n      \"time_discharge\": 720,\n      \"time_from\": 28800,\n      \"time_to\": 75600,\n      \"weight\": 70.964,\n      \"volume\": 0.634\n    },\n    {\n      \"city\": \"753fc562-d6d8-11e8-80d7-00155db4d016\",\n      \"lat\": 55.155793,\n      \"lon\": 61.386034,\n      \"time_delayed\": 1800,\n      \"time_discharge\": 720,\n      \"time_from\": 28800,\n      \"time_to\": 75600,\n      \"weight\": 13.349,\n      \"volume\": 0.165\n    },\n    {\n      \"city\": \"753fc562-d6d8-11e8-80d7-00155db4d016\",\n      \"lat\": 55.244778,\n      \"lon\": 61.402832,\n      \"time_delayed\": 1800,\n      \"time_discharge\": 720,\n      \"time_from\": 28800,\n      \"time_to\": 75600,\n      \"weight\": 17.793,\n      \"volume\": 0.173\n    },\n    {\n      \"city\": \"753fc985-d6d8-11e8-80d7-00155db4d016\",\n      \"lat\": 55.045114,\n      \"lon\": 60.104425,\n      \"time_delayed\": 1800,\n      \"time_discharge\": 720,\n      \"time_from\": 28800,\n      \"time_to\": 75600,\n      \"weight\": 12.582,\n      \"volume\": 0.092\n    },\n    {\n      \"city\": \"753fc562-d6d8-11e8-80d7-00155db4d016\",\n      \"lat\": 55.155103,\n      \"lon\": 61.390974,\n      \"time_delayed\": 1800,\n      \"time_discharge\": 720,\n      \"time_from\": 28800,\n      \"time_to\": 75600,\n      \"weight\": 37.677,\n      \"volume\": 0.387\n    },\n    {\n      \"city\": \"753fcd3e-d6d8-11e8-80d7-00155db4d016\",\n      \"lat\": 55.704286,\n      \"lon\": 60.553268,\n      \"time_delayed\": 1800,\n      \"time_discharge\": 720,\n      \"time_from\": 28800,\n      \"time_to\": 75600,\n      \"weight\": 59.271,\n      \"volume\": 0.246\n    },\n    {\n      \"city\": \"753fc95d-d6d8-11e8-80d7-00155db4d016\",\n      \"lat\": 54.932126,\n      \"lon\": 58.172957,\n      \"time_delayed\": 1800,\n      \"time_discharge\": 720,\n      \"time_from\": 28800,\n      \"time_to\": 75600,\n      \"weight\": 27,\n      \"volume\": 0.518\n    },\n    {\n      \"city\": \"753fc562-d6d8-11e8-80d7-00155db4d016\",\n      \"lat\": 55.189264,\n      \"lon\": 61.278083,\n      \"time_delayed\": 1800,\n      \"time_discharge\": 720,\n      \"time_from\": 28800,\n      \"time_to\": 75600,\n      \"weight\": 13.482,\n      \"volume\": 0.087\n    },\n    {\n      \"city\": \"753fc98f-d6d8-11e8-80d7-00155db4d016\",\n      \"lat\": 54.972215,\n      \"lon\": 60.369186,\n      \"time_delayed\": 1800,\n      \"time_discharge\": 720,\n      \"time_from\": 28800,\n      \"time_to\": 75600,\n      \"weight\": 45.927,\n      \"volume\": 0.435\n    },\n    {\n      \"city\": \"753fc562-d6d8-11e8-80d7-00155db4d016\",\n      \"lat\": 55.142051,\n      \"lon\": 61.389501,\n      \"time_delayed\": 1800,\n      \"time_discharge\": 720,\n      \"time_from\": 28800,\n      \"time_to\": 75600,\n      \"weight\": 16.563,\n      \"volume\": 0.127\n    },\n    {\n      \"city\": \"753fc944-d6d8-11e8-80d7-00155db4d016\",\n      \"lat\": 55.117993,\n      \"lon\": 61.611026,\n      \"time_delayed\": 1800,\n      \"time_discharge\": 720,\n      \"time_from\": 36000,\n      \"time_to\": 61200,\n      \"weight\": 29.487,\n      \"volume\": 0.301\n    },\n    {\n      \"city\": \"753fc985-d6d8-11e8-80d7-00155db4d016\",\n      \"lat\": 55.060668,\n      \"lon\": 60.117154,\n      \"time_delayed\": 1800,\n      \"time_discharge\": 720,\n      \"time_from\": 21600,\n      \"time_to\": 25200,\n      \"weight\": 51.299,\n      \"volume\": 0.356\n    },\n    {\n      \"city\": \"753fc944-d6d8-11e8-80d7-00155db4d016\",\n      \"lat\": 54.992962,\n      \"lon\": 61.479342,\n      \"time_delayed\": 1800,\n      \"time_discharge\": 720,\n      \"time_from\": 32400,\n      \"time_to\": 61200,\n      \"weight\": 51.507,\n      \"volume\": 0.364\n    },\n    {\n      \"city\": \"753fc562-d6d8-11e8-80d7-00155db4d016\",\n      \"lat\": 55.18102,\n      \"lon\": 61.446885,\n      \"time_delayed\": 1800,\n      \"time_discharge\": 720,\n      \"time_from\": 28800,\n      \"time_to\": 75600,\n      \"weight\": 73.512,\n      \"volume\": 0.803\n    },\n    {\n      \"city\": \"d201b750-cc67-11e8-80d6-00155db4d016\",\n      \"lat\": 54.817842,\n      \"lon\": 58.446423,\n      \"time_delayed\": 1800,\n      \"time_discharge\": 720,\n      \"time_from\": 28800,\n      \"time_to\": 75600,\n      \"weight\": 424.166,\n      \"volume\": 3.3\n    },\n    {\n      \"city\": \"753fc562-d6d8-11e8-80d7-00155db4d016\",\n      \"lat\": 55.171812,\n      \"lon\": 61.296328,\n      \"time_delayed\": 1800,\n      \"time_discharge\": 720,\n      \"time_from\": 28800,\n      \"time_to\": 75600,\n      \"weight\": 22.778,\n      \"volume\": 0.256\n    },\n    {\n      \"city\": \"753fc562-d6d8-11e8-80d7-00155db4d016\",\n      \"lat\": 55.234877,\n      \"lon\": 61.350514,\n      \"time_delayed\": 1800,\n      \"time_discharge\": 720,\n      \"time_from\": 36000,\n      \"time_to\": 64800,\n      \"weight\": 64.196,\n      \"volume\": 0.818\n    },\n    {\n      \"city\": \"753fc482-d6d8-11e8-80d7-00155db4d016\",\n      \"lat\": 55.488774,\n      \"lon\": 60.860232,\n      \"time_delayed\": 1800,\n      \"time_discharge\": 720,\n      \"time_from\": 28800,\n      \"time_to\": 75600,\n      \"weight\": 47.97,\n      \"volume\": 1.226\n    },\n    {\n      \"city\": \"753fc95d-d6d8-11e8-80d7-00155db4d016\",\n      \"lat\": 54.92329,\n      \"lon\": 58.148038,\n      \"time_delayed\": 1800,\n      \"time_discharge\": 720,\n      \"time_from\": 28800,\n      \"time_to\": 75600,\n      \"weight\": 36.287,\n      \"volume\": 0.4\n    },\n    {\n      \"city\": \"753fc562-d6d8-11e8-80d7-00155db4d016\",\n      \"lat\": 55.158549,\n      \"lon\": 61.299705,\n      \"time_delayed\": 1800,\n      \"time_discharge\": 720,\n      \"time_from\": 39600,\n      \"time_to\": 57600,\n      \"weight\": 36.05,\n      \"volume\": 0.261\n    },\n    {\n      \"city\": \"753fcd62-d6d8-11e8-80d7-00155db4d016\",\n      \"lat\": 55.040492,\n      \"lon\": 59.028881,\n      \"time_delayed\": 1800,\n      \"time_discharge\": 720,\n      \"time_from\": 28800,\n      \"time_to\": 75600,\n      \"weight\": 1.05,\n      \"volume\": 0.011\n    },\n    {\n      \"city\": \"753fc98f-d6d8-11e8-80d7-00155db4d016\",\n      \"lat\": 54.979206,\n      \"lon\": 60.359493,\n      \"time_delayed\": 1800,\n      \"time_discharge\": 720,\n      \"time_from\": 28800,\n      \"time_to\": 75600,\n      \"weight\": 15.024,\n      \"volume\": 0.24\n    },\n    {\n      \"city\": \"753fc96b-d6d8-11e8-80d7-00155db4d016\",\n      \"lat\": 54.751871,\n      \"lon\": 58.20421,\n      \"time_delayed\": 1800,\n      \"time_discharge\": 720,\n      \"time_from\": 32400,\n      \"time_to\": 61200,\n      \"weight\": 28.303,\n      \"volume\": 0.286\n    },\n    {\n      \"city\": \"11f37d9e-d74f-11e8-80d7-00155db4d016\",\n      \"lat\": 55.717035,\n      \"lon\": 60.624238,\n      \"time_delayed\": 1800,\n      \"time_discharge\": 720,\n      \"time_from\": 28800,\n      \"time_to\": 75600,\n      \"weight\": 1.824,\n      \"volume\": 0.008\n    },\n    {\n      \"city\": \"753fc562-d6d8-11e8-80d7-00155db4d016\",\n      \"lat\": 55.153503,\n      \"lon\": 61.392591,\n      \"time_delayed\": 1800,\n      \"time_discharge\": 720,\n      \"time_from\": 36000,\n      \"time_to\": 61200,\n      \"weight\": 13.476,\n      \"volume\": 0.066\n    },\n    {\n      \"city\": \"753fc985-d6d8-11e8-80d7-00155db4d016\",\n      \"lat\": 55.059635,\n      \"lon\": 60.101488,\n      \"time_delayed\": 1800,\n      \"time_discharge\": 720,\n      \"time_from\": 28800,\n      \"time_to\": 75600,\n      \"weight\": 49.04,\n      \"volume\": 0.317\n    },\n    {\n      \"city\": \"753fc951-d6d8-11e8-80d7-00155db4d016\",\n      \"lat\": 54.848909,\n      \"lon\": 58.408073,\n      \"time_delayed\": 1800,\n      \"time_discharge\": 720,\n      \"time_from\": 28800,\n      \"time_to\": 75600,\n      \"weight\": 15.213,\n      \"volume\": 0.373\n    },\n    {\n      \"city\": \"753fc985-d6d8-11e8-80d7-00155db4d016\",\n      \"lat\": 55.066623,\n      \"lon\": 60.09237,\n      \"time_delayed\": 1800,\n      \"time_discharge\": 720,\n      \"time_from\": 28800,\n      \"time_to\": 75600,\n      \"weight\": 19.34,\n      \"volume\": 0.176\n    },\n    {\n      \"city\": \"753fc96b-d6d8-11e8-80d7-00155db4d016\",\n      \"lat\": 54.753799,\n      \"lon\": 58.203365,\n      \"time_delayed\": 1800,\n      \"time_discharge\": 720,\n      \"time_from\": 36000,\n      \"time_to\": 64800,\n      \"weight\": 19.001,\n      \"volume\": 0.191\n    },\n    {\n      \"city\": \"766f2497-cc67-11e8-80d6-00155db4d016\",\n      \"lat\": 56.060693,\n      \"lon\": 60.751862,\n      \"time_delayed\": 1800,\n      \"time_discharge\": 720,\n      \"time_from\": 28800,\n      \"time_to\": 75600,\n      \"weight\": 172.028,\n      \"volume\": 1.215\n    },\n    {\n      \"city\": \"753fc562-d6d8-11e8-80d7-00155db4d016\",\n      \"lat\": 55.140091,\n      \"lon\": 61.413639,\n      \"time_delayed\": 1800,\n      \"time_discharge\": 720,\n      \"time_from\": 32400,\n      \"time_to\": 72000,\n      \"weight\": 29.488,\n      \"volume\": 0.232\n    },\n    {\n      \"city\": \"753fc562-d6d8-11e8-80d7-00155db4d016\",\n      \"lat\": 55.160026,\n      \"lon\": 61.40259,\n      \"time_delayed\": 1800,\n      \"time_discharge\": 720,\n      \"time_from\": 43200,\n      \"time_to\": 68400,\n      \"weight\": 10.175,\n      \"volume\": 0.221\n    },\n    {\n      \"city\": \"753fc98f-d6d8-11e8-80d7-00155db4d016\",\n      \"lat\": 54.978095,\n      \"lon\": 60.369985,\n      \"time_delayed\": 1800,\n      \"time_discharge\": 720,\n      \"time_from\": 28800,\n      \"time_to\": 75600,\n      \"weight\": 0,\n      \"volume\": 0\n    },\n    {\n      \"city\": \"753fc562-d6d8-11e8-80d7-00155db4d016\",\n      \"lat\": 55.143646,\n      \"lon\": 61.417313,\n      \"time_delayed\": 1800,\n      \"time_discharge\": 720,\n      \"time_from\": 18000,\n      \"time_to\": 36000,\n      \"weight\": 6.995,\n      \"volume\": 0.067\n    },\n    {\n      \"city\": \"753fc602-d6d8-11e8-80d7-00155db4d016\",\n      \"lat\": 54.951209,\n      \"lon\": 58.825332,\n      \"time_delayed\": 1800,\n      \"time_discharge\": 720,\n      \"time_from\": 28800,\n      \"time_to\": 75600,\n      \"weight\": 25.702,\n      \"volume\": 0.285\n    },\n    {\n      \"city\": \"753fc562-d6d8-11e8-80d7-00155db4d016\",\n      \"lat\": 55.180074,\n      \"lon\": 61.366801,\n      \"time_delayed\": 1800,\n      \"time_discharge\": 720,\n      \"time_from\": 34200,\n      \"time_to\": 72000,\n      \"weight\": 25.909,\n      \"volume\": 0.46\n    },\n    {\n      \"city\": \"753fc978-d6d8-11e8-80d7-00155db4d016\",\n      \"lat\": 55.148292,\n      \"lon\": 59.667871,\n      \"time_delayed\": 1800,\n      \"time_discharge\": 720,\n      \"time_from\": 32400,\n      \"time_to\": 66600,\n      \"weight\": 26.583,\n      \"volume\": 0.357\n    },\n    {\n      \"city\": \"753fcd3e-d6d8-11e8-80d7-00155db4d016\",\n      \"lat\": 55.696905,\n      \"lon\": 60.555595,\n      \"time_delayed\": 1800,\n      \"time_discharge\": 720,\n      \"time_from\": 28800,\n      \"time_to\": 75600,\n      \"weight\": 19.726,\n      \"volume\": 0.127\n    },\n    {\n      \"city\": \"753fc96b-d6d8-11e8-80d7-00155db4d016\",\n      \"lat\": 54.760142,\n      \"lon\": 58.229812,\n      \"time_delayed\": 1800,\n      \"time_discharge\": 720,\n      \"time_from\": 28800,\n      \"time_to\": 75600,\n      \"weight\": 119.027,\n      \"volume\": 0.426\n    },\n    {\n      \"city\": \"753fc96b-d6d8-11e8-80d7-00155db4d016\",\n      \"lat\": 54.755222,\n      \"lon\": 58.205917,\n      \"time_delayed\": 1800,\n      \"time_discharge\": 720,\n      \"time_from\": 36000,\n      \"time_to\": 64800,\n      \"weight\": 16.218,\n      \"volume\": 0.123\n    },\n    {\n      \"city\": \"753fc562-d6d8-11e8-80d7-00155db4d016\",\n      \"lat\": 55.194044,\n      \"lon\": 61.351305,\n      \"time_delayed\": 1800,\n      \"time_discharge\": 720,\n      \"time_from\": 63000,\n      \"time_to\": 79200,\n      \"weight\": 52.483,\n      \"volume\": 0.489\n    },\n    {\n      \"city\": \"753fc562-d6d8-11e8-80d7-00155db4d016\",\n      \"lat\": 55.175391,\n      \"lon\": 61.433303,\n      \"time_delayed\": 1800,\n      \"time_discharge\": 720,\n      \"time_from\": 28800,\n      \"time_to\": 75600,\n      \"weight\": 37.931,\n      \"volume\": 0.488\n    },\n    {\n      \"city\": \"56868c69-d748-11e8-80d7-00155db4d016\",\n      \"lat\": 55.064818,\n      \"lon\": 59.903274,\n      \"time_delayed\": 1800,\n      \"time_discharge\": 720,\n      \"time_from\": 28800,\n      \"time_to\": 75600,\n      \"weight\": 41.64,\n      \"volume\": 0.371\n    },\n    {\n      \"city\": \"753fc985-d6d8-11e8-80d7-00155db4d016\",\n      \"lat\": 55.045346,\n      \"lon\": 60.109159,\n      \"time_delayed\": 1800,\n      \"time_discharge\": 720,\n      \"time_from\": 28800,\n      \"time_to\": 75600,\n      \"weight\": 17.477,\n      \"volume\": 0.179\n    },\n    {\n      \"city\": \"753fc985-d6d8-11e8-80d7-00155db4d016\",\n      \"lat\": 55.138078,\n      \"lon\": 60.158845,\n      \"time_delayed\": 1800,\n      \"time_discharge\": 720,\n      \"time_from\": 28800,\n      \"time_to\": 75600,\n      \"weight\": 13.111,\n      \"volume\": 0.107\n    },\n    {\n      \"city\": \"753fc562-d6d8-11e8-80d7-00155db4d016\",\n      \"lat\": 55.167004,\n      \"lon\": 61.431866,\n      \"time_delayed\": 1800,\n      \"time_discharge\": 720,\n      \"time_from\": 32400,\n      \"time_to\": 64800,\n      \"weight\": 13.073,\n      \"volume\": 0.13\n    },\n    {\n      \"city\": \"753fc985-d6d8-11e8-80d7-00155db4d016\",\n      \"lat\": 55.068716,\n      \"lon\": 60.09837,\n      \"time_delayed\": 1800,\n      \"time_discharge\": 720,\n      \"time_from\": 28800,\n      \"time_to\": 75600,\n      \"weight\": 19.684,\n      \"volume\": 0.18\n    },\n    {\n      \"city\": \"753fc96b-d6d8-11e8-80d7-00155db4d016\",\n      \"lat\": 54.753113,\n      \"lon\": 58.202467,\n      \"time_delayed\": 1800,\n      \"time_discharge\": 720,\n      \"time_from\": 32400,\n      \"time_to\": 64800,\n      \"weight\": 14.207,\n      \"volume\": 0.139\n    },\n    {\n      \"city\": \"753fc98f-d6d8-11e8-80d7-00155db4d016\",\n      \"lat\": 54.976276,\n      \"lon\": 60.368584,\n      \"time_delayed\": 1800,\n      \"time_discharge\": 720,\n      \"time_from\": 28800,\n      \"time_to\": 75600,\n      \"weight\": 18.408,\n      \"volume\": 0.077\n    },\n    {\n      \"city\": \"753fcd3e-d6d8-11e8-80d7-00155db4d016\",\n      \"lat\": 55.706467,\n      \"lon\": 60.538365,\n      \"time_delayed\": 1800,\n      \"time_discharge\": 720,\n      \"time_from\": 36000,\n      \"time_to\": 68400,\n      \"weight\": 203.924,\n      \"volume\": 2.755\n    },\n    {\n      \"city\": \"753fc562-d6d8-11e8-80d7-00155db4d016\",\n      \"lat\": 55.163775,\n      \"lon\": 61.401574,\n      \"time_delayed\": 1800,\n      \"time_discharge\": 720,\n      \"time_from\": 28800,\n      \"time_to\": 75600,\n      \"weight\": 30.879,\n      \"volume\": 0.197\n    },\n    {\n      \"city\": \"753fc944-d6d8-11e8-80d7-00155db4d016\",\n      \"lat\": 55.056398,\n      \"lon\": 61.6056,\n      \"time_delayed\": 1800,\n      \"time_discharge\": 720,\n      \"time_from\": 32400,\n      \"time_to\": 64800,\n      \"weight\": 122.317,\n      \"volume\": 1.06\n    },\n    {\n      \"city\": \"753fcd62-d6d8-11e8-80d7-00155db4d016\",\n      \"lat\": 55.037593,\n      \"lon\": 58.971829,\n      \"time_delayed\": 1800,\n      \"time_discharge\": 720,\n      \"time_from\": 43200,\n      \"time_to\": 61200,\n      \"weight\": 60.194,\n      \"volume\": 0.775\n    },\n    {\n      \"city\": \"11f37d9e-d74f-11e8-80d7-00155db4d016\",\n      \"lat\": 55.777535,\n      \"lon\": 60.704329,\n      \"time_delayed\": 1800,\n      \"time_discharge\": 720,\n      \"time_from\": 28800,\n      \"time_to\": 75600,\n      \"weight\": 35.926,\n      \"volume\": 0.308\n    },\n    {\n      \"city\": \"753fc562-d6d8-11e8-80d7-00155db4d016\",\n      \"lat\": 55.17647,\n      \"lon\": 61.331874,\n      \"time_delayed\": 1800,\n      \"time_discharge\": 720,\n      \"time_from\": 28800,\n      \"time_to\": 75600,\n      \"weight\": 131.771,\n      \"volume\": 2.732\n    },\n    {\n      \"city\": \"753fcd18-d6d8-11e8-80d7-00155db4d016\",\n      \"lat\": 55.990096,\n      \"lon\": 61.280104,\n      \"time_delayed\": 1800,\n      \"time_discharge\": 720,\n      \"time_from\": 28800,\n      \"time_to\": 75600,\n      \"weight\": 42.403,\n      \"volume\": 0.552\n    },\n    {\n      \"city\": \"753fc562-d6d8-11e8-80d7-00155db4d016\",\n      \"lat\": 55.1739,\n      \"lon\": 61.486321,\n      \"time_delayed\": 1800,\n      \"time_discharge\": 720,\n      \"time_from\": 28800,\n      \"time_to\": 75600,\n      \"weight\": 14.654,\n      \"volume\": 0.083\n    },\n    {\n      \"city\": \"753fc985-d6d8-11e8-80d7-00155db4d016\",\n      \"lat\": 55.047363,\n      \"lon\": 60.11781,\n      \"time_delayed\": 1800,\n      \"time_discharge\": 720,\n      \"time_from\": 28800,\n      \"time_to\": 75600,\n      \"weight\": 26.796,\n      \"volume\": 0.108\n    },\n    {\n      \"city\": \"753fc562-d6d8-11e8-80d7-00155db4d016\",\n      \"lat\": 55.190827,\n      \"lon\": 61.27935,\n      \"time_delayed\": 1800,\n      \"time_discharge\": 720,\n      \"time_from\": 28800,\n      \"time_to\": 75600,\n      \"weight\": 0.6,\n      \"volume\": 0.005\n    },\n    {\n      \"city\": \"753fc602-d6d8-11e8-80d7-00155db4d016\",\n      \"lat\": 54.94413,\n      \"lon\": 58.817418,\n      \"time_delayed\": 1800,\n      \"time_discharge\": 720,\n      \"time_from\": 28800,\n      \"time_to\": 75600,\n      \"weight\": 38.226,\n      \"volume\": 0.238\n    },\n    {\n      \"city\": \"753fc562-d6d8-11e8-80d7-00155db4d016\",\n      \"lat\": 55.165703,\n      \"lon\": 61.400128,\n      \"time_delayed\": 1800,\n      \"time_discharge\": 720,\n      \"time_from\": 36000,\n      \"time_to\": 61200,\n      \"weight\": 10.255,\n      \"volume\": 0.069\n    },\n    {\n      \"city\": \"753fc236-d6d8-11e8-80d7-00155db4d016\",\n      \"lat\": 55.159522,\n      \"lon\": 59.144809,\n      \"time_delayed\": 1800,\n      \"time_discharge\": 720,\n      \"time_from\": 28800,\n      \"time_to\": 75600,\n      \"weight\": 26.828,\n      \"volume\": 0.119\n    },\n    {\n      \"city\": \"753fc562-d6d8-11e8-80d7-00155db4d016\",\n      \"lat\": 55.156194,\n      \"lon\": 61.30382,\n      \"time_delayed\": 1800,\n      \"time_discharge\": 720,\n      \"time_from\": 46800,\n      \"time_to\": 61200,\n      \"weight\": 22.299,\n      \"volume\": 0.186\n    },\n    {\n      \"city\": \"753fc944-d6d8-11e8-80d7-00155db4d016\",\n      \"lat\": 55.225527,\n      \"lon\": 61.712616,\n      \"time_delayed\": 1800,\n      \"time_discharge\": 720,\n      \"time_from\": 30600,\n      \"time_to\": 61200,\n      \"weight\": 67.392,\n      \"volume\": 1.364\n    },\n    {\n      \"city\": \"753fc562-d6d8-11e8-80d7-00155db4d016\",\n      \"lat\": 55.170187,\n      \"lon\": 61.529117,\n      \"time_delayed\": 1800,\n      \"time_discharge\": 720,\n      \"time_from\": 28800,\n      \"time_to\": 75600,\n      \"weight\": 2.931,\n      \"volume\": 0.03\n    },\n    {\n      \"city\": \"753fc95d-d6d8-11e8-80d7-00155db4d016\",\n      \"lat\": 54.91276,\n      \"lon\": 58.117137,\n      \"time_delayed\": 1800,\n      \"time_discharge\": 720,\n      \"time_from\": 28800,\n      \"time_to\": 75600,\n      \"weight\": 58.007,\n      \"volume\": 0.397\n    },\n    {\n      \"city\": \"753fc848-d6d8-11e8-80d7-00155db4d016\",\n      \"lat\": 55.898508,\n      \"lon\": 60.760797,\n      \"time_delayed\": 1800,\n      \"time_discharge\": 720,\n      \"time_from\": 28800,\n      \"time_to\": 75600,\n      \"weight\": 52.19,\n      \"volume\": 0.536\n    },\n    {\n      \"city\": \"753fc978-d6d8-11e8-80d7-00155db4d016\",\n      \"lat\": 55.151652,\n      \"lon\": 59.665661,\n      \"time_delayed\": 1800,\n      \"time_discharge\": 720,\n      \"time_from\": 28800,\n      \"time_to\": 75600,\n      \"weight\": 13.746,\n      \"volume\": 0.086\n    },\n    {\n      \"city\": \"753fc562-d6d8-11e8-80d7-00155db4d016\",\n      \"lat\": 55.251778,\n      \"lon\": 61.40276,\n      \"time_delayed\": 1800,\n      \"time_discharge\": 720,\n      \"time_from\": 34200,\n      \"time_to\": 46800,\n      \"weight\": 20.349,\n      \"volume\": 0.223\n    },\n    {\n      \"city\": \"753fc985-d6d8-11e8-80d7-00155db4d016\",\n      \"lat\": 55.037603,\n      \"lon\": 60.116903,\n      \"time_delayed\": 1800,\n      \"time_discharge\": 720,\n      \"time_from\": 28800,\n      \"time_to\": 75600,\n      \"weight\": 22.813,\n      \"volume\": 0.285\n    },\n    {\n      \"city\": \"753fc562-d6d8-11e8-80d7-00155db4d016\",\n      \"lat\": 55.183323,\n      \"lon\": 61.30505,\n      \"time_delayed\": 1800,\n      \"time_discharge\": 720,\n      \"time_from\": 36000,\n      \"time_to\": 61200,\n      \"weight\": 24.811,\n      \"volume\": 0.155\n    },\n    {\n      \"city\": \"753fc951-d6d8-11e8-80d7-00155db4d016\",\n      \"lat\": 54.854719,\n      \"lon\": 58.419365,\n      \"time_delayed\": 1800,\n      \"time_discharge\": 720,\n      \"time_from\": 28800,\n      \"time_to\": 75600,\n      \"weight\": 26.541,\n      \"volume\": 0.171\n    },\n    {\n      \"city\": \"753fc562-d6d8-11e8-80d7-00155db4d016\",\n      \"lat\": 55.101741,\n      \"lon\": 61.380716,\n      \"time_delayed\": 1800,\n      \"time_discharge\": 720,\n      \"time_from\": 30600,\n      \"time_to\": 63000,\n      \"weight\": 21.18,\n      \"volume\": 0.193\n    },\n    {\n      \"city\": \"753fc978-d6d8-11e8-80d7-00155db4d016\",\n      \"lat\": 55.08548,\n      \"lon\": 59.692581,\n      \"time_delayed\": 1800,\n      \"time_discharge\": 720,\n      \"time_from\": 36000,\n      \"time_to\": 57600,\n      \"weight\": 36.697,\n      \"volume\": 0.258\n    },\n    {\n      \"city\": \"753fc98f-d6d8-11e8-80d7-00155db4d016\",\n      \"lat\": 54.998871,\n      \"lon\": 60.399576,\n      \"time_delayed\": 1800,\n      \"time_discharge\": 720,\n      \"time_from\": 28800,\n      \"time_to\": 75600,\n      \"weight\": 13.85,\n      \"volume\": 0.172\n    },\n    {\n      \"city\": \"753fc562-d6d8-11e8-80d7-00155db4d016\",\n      \"lat\": 55.193443,\n      \"lon\": 61.298951,\n      \"time_delayed\": 1800,\n      \"time_discharge\": 720,\n      \"time_from\": 28800,\n      \"time_to\": 75600,\n      \"weight\": 7.982,\n      \"volume\": 0.157\n    },\n    {\n      \"city\": \"753fc562-d6d8-11e8-80d7-00155db4d016\",\n      \"lat\": 55.253517,\n      \"lon\": 61.40471,\n      \"time_delayed\": 1800,\n      \"time_discharge\": 720,\n      \"time_from\": 30600,\n      \"time_to\": 61200,\n      \"weight\": 34.366,\n      \"volume\": 0.387\n    },\n    {\n      \"city\": \"753fcd3e-d6d8-11e8-80d7-00155db4d016\",\n      \"lat\": 55.703768,\n      \"lon\": 60.56147,\n      \"time_delayed\": 1800,\n      \"time_discharge\": 720,\n      \"time_from\": 28800,\n      \"time_to\": 75600,\n      \"weight\": 32.255,\n      \"volume\": 0.371\n    },\n    {\n      \"city\": \"11f37d9e-d74f-11e8-80d7-00155db4d016\",\n      \"lat\": 55.77397,\n      \"lon\": 60.70697,\n      \"time_delayed\": 1800,\n      \"time_discharge\": 720,\n      \"time_from\": 28800,\n      \"time_to\": 75600,\n      \"weight\": 6.296,\n      \"volume\": 0.066\n    },\n    {\n      \"city\": \"753fc562-d6d8-11e8-80d7-00155db4d016\",\n      \"lat\": 55.160391,\n      \"lon\": 61.426224,\n      \"time_delayed\": 1800,\n      \"time_discharge\": 720,\n      \"time_from\": 36000,\n      \"time_to\": 61200,\n      \"weight\": 24.37,\n      \"volume\": 0.273\n    },\n    {\n      \"city\": \"753fc562-d6d8-11e8-80d7-00155db4d016\",\n      \"lat\": 55.175838,\n      \"lon\": 61.324715,\n      \"time_delayed\": 1800,\n      \"time_discharge\": 720,\n      \"time_from\": 46800,\n      \"time_to\": 64800,\n      \"weight\": 70.296,\n      \"volume\": 0.721\n    },\n    {\n      \"city\": \"753fc562-d6d8-11e8-80d7-00155db4d016\",\n      \"lat\": 55.186217,\n      \"lon\": 61.435872,\n      \"time_delayed\": 1800,\n      \"time_discharge\": 720,\n      \"time_from\": 32400,\n      \"time_to\": 64800,\n      \"weight\": 69.212,\n      \"volume\": 0.863\n    },\n    {\n      \"city\": \"753fc96b-d6d8-11e8-80d7-00155db4d016\",\n      \"lat\": 54.760044,\n      \"lon\": 58.23849,\n      \"time_delayed\": 1800,\n      \"time_discharge\": 720,\n      \"time_from\": 36000,\n      \"time_to\": 64800,\n      \"weight\": 43.701,\n      \"volume\": 0.378\n    },\n    {\n      \"city\": \"753fc985-d6d8-11e8-80d7-00155db4d016\",\n      \"lat\": 55.062261,\n      \"lon\": 60.119984,\n      \"time_delayed\": 1800,\n      \"time_discharge\": 720,\n      \"time_from\": 28800,\n      \"time_to\": 75600,\n      \"weight\": 19.266,\n      \"volume\": 0.237\n    },\n    {\n      \"city\": \"753fcd3e-d6d8-11e8-80d7-00155db4d016\",\n      \"lat\": 55.706061,\n      \"lon\": 60.556314,\n      \"time_delayed\": 1800,\n      \"time_discharge\": 720,\n      \"time_from\": 28800,\n      \"time_to\": 75600,\n      \"weight\": 32.8,\n      \"volume\": 0.145\n    },\n    {\n      \"city\": \"753fc562-d6d8-11e8-80d7-00155db4d016\",\n      \"lat\": 55.192574,\n      \"lon\": 61.393211,\n      \"time_delayed\": 1800,\n      \"time_discharge\": 720,\n      \"time_from\": 36000,\n      \"time_to\": 61200,\n      \"weight\": 13.83,\n      \"volume\": 0.235\n    },\n    {\n      \"city\": \"753fc562-d6d8-11e8-80d7-00155db4d016\",\n      \"lat\": 55.208805,\n      \"lon\": 61.273654,\n      \"time_delayed\": 1800,\n      \"time_discharge\": 720,\n      \"time_from\": 28800,\n      \"time_to\": 75600,\n      \"weight\": 29.138,\n      \"volume\": 0.446\n    },\n    {\n      \"city\": \"753fc985-d6d8-11e8-80d7-00155db4d016\",\n      \"lat\": 55.137785,\n      \"lon\": 60.153491,\n      \"time_delayed\": 1800,\n      \"time_discharge\": 720,\n      \"time_from\": 28800,\n      \"time_to\": 75600,\n      \"weight\": 454.646,\n      \"volume\": 4.211\n    },\n    {\n      \"city\": \"753fcd3e-d6d8-11e8-80d7-00155db4d016\",\n      \"lat\": 55.733974,\n      \"lon\": 60.56863,\n      \"time_delayed\": 1800,\n      \"time_discharge\": 720,\n      \"time_from\": 28800,\n      \"time_to\": 75600,\n      \"weight\": 53.298,\n      \"volume\": 0.315\n    },\n    {\n      \"city\": \"753fc95d-d6d8-11e8-80d7-00155db4d016\",\n      \"lat\": 54.936455,\n      \"lon\": 58.183602,\n      \"time_delayed\": 1800,\n      \"time_discharge\": 720,\n      \"time_from\": 28800,\n      \"time_to\": 75600,\n      \"weight\": 2.878,\n      \"volume\": 0.013\n    },\n    {\n      \"city\": \"753fc98f-d6d8-11e8-80d7-00155db4d016\",\n      \"lat\": 54.973786,\n      \"lon\": 60.369302,\n      \"time_delayed\": 1800,\n      \"time_discharge\": 720,\n      \"time_from\": 28800,\n      \"time_to\": 75600,\n      \"weight\": 50.473,\n      \"volume\": 0.325\n    },\n    {\n      \"city\": \"753fc562-d6d8-11e8-80d7-00155db4d016\",\n      \"lat\": 55.172177,\n      \"lon\": 61.307548,\n      \"time_delayed\": 1800,\n      \"time_discharge\": 720,\n      \"time_from\": 28800,\n      \"time_to\": 75600,\n      \"weight\": 34.017,\n      \"volume\": 0.442\n    },\n    {\n      \"city\": \"753fcd62-d6d8-11e8-80d7-00155db4d016\",\n      \"lat\": 55.047972,\n      \"lon\": 58.970895,\n      \"time_delayed\": 1800,\n      \"time_discharge\": 720,\n      \"time_from\": 28800,\n      \"time_to\": 64800,\n      \"weight\": 29.79,\n      \"volume\": 0.549\n    },\n    {\n      \"city\": \"753fc562-d6d8-11e8-80d7-00155db4d016\",\n      \"lat\": 55.154769,\n      \"lon\": 61.371041,\n      \"time_delayed\": 1800,\n      \"time_discharge\": 720,\n      \"time_from\": 28800,\n      \"time_to\": 75600,\n      \"weight\": 18.847,\n      \"volume\": 0.321\n    },\n    {\n      \"city\": \"753fc562-d6d8-11e8-80d7-00155db4d016\",\n      \"lat\": 55.177195,\n      \"lon\": 61.427662,\n      \"time_delayed\": 1800,\n      \"time_discharge\": 720,\n      \"time_from\": 36000,\n      \"time_to\": 61200,\n      \"weight\": 7,\n      \"volume\": 0.139\n    },\n    {\n      \"city\": \"753fc985-d6d8-11e8-80d7-00155db4d016\",\n      \"lat\": 55.057533,\n      \"lon\": 60.105674,\n      \"time_delayed\": 1800,\n      \"time_discharge\": 720,\n      \"time_from\": 28800,\n      \"time_to\": 75600,\n      \"weight\": 125.568,\n      \"volume\": 1.083\n    },\n    {\n      \"city\": \"753fc562-d6d8-11e8-80d7-00155db4d016\",\n      \"lat\": 55.181076,\n      \"lon\": 61.45895,\n      \"time_delayed\": 1800,\n      \"time_discharge\": 720,\n      \"time_from\": 28800,\n      \"time_to\": 75600,\n      \"weight\": 9.126,\n      \"volume\": 0.103\n    },\n    {\n      \"city\": \"753fc562-d6d8-11e8-80d7-00155db4d016\",\n      \"lat\": 55.188077,\n      \"lon\": 61.332009,\n      \"time_delayed\": 1800,\n      \"time_discharge\": 720,\n      \"time_from\": 28800,\n      \"time_to\": 75600,\n      \"weight\": 12.007,\n      \"volume\": 0.192\n    },\n    {\n      \"city\": \"753fc985-d6d8-11e8-80d7-00155db4d016\",\n      \"lat\": 55.094534,\n      \"lon\": 60.128608,\n      \"time_delayed\": 1800,\n      \"time_discharge\": 720,\n      \"time_from\": 30600,\n      \"time_to\": 57600,\n      \"weight\": 157.228,\n      \"volume\": 1.299\n    }\n  ],\n  \"cities\": [\n    {\n      \"id\": \"11f37d9e-d74f-11e8-80d7-00155db4d016\",\n      \"priority\": 0,\n      \"closed\": true\n    },\n    {\n      \"id\": \"753fc96b-d6d8-11e8-80d7-00155db4d016\",\n      \"priority\": 0,\n      \"closed\": false\n    },\n    {\n      \"id\": \"753fc951-d6d8-11e8-80d7-00155db4d016\",\n      \"priority\": 0,\n      \"closed\": false\n    },\n    {\n      \"id\": \"753fcd62-d6d8-11e8-80d7-00155db4d016\",\n      \"priority\": 0,\n      \"closed\": false\n    },\n    {\n      \"id\": \"753fc944-d6d8-11e8-80d7-00155db4d016\",\n      \"priority\": 0,\n      \"closed\": false\n    },\n    {\n      \"id\": \"753fc602-d6d8-11e8-80d7-00155db4d016\",\n      \"priority\": 0,\n      \"closed\": false\n    },\n    {\n      \"id\": \"753fc93b-d6d8-11e8-80d7-00155db4d016\",\n      \"priority\": 0,\n      \"closed\": false\n    },\n    {\n      \"id\": \"56868c69-d748-11e8-80d7-00155db4d016\",\n      \"priority\": 0,\n      \"closed\": false\n    },\n    {\n      \"id\": \"753fcd18-d6d8-11e8-80d7-00155db4d016\",\n      \"priority\": 0,\n      \"closed\": false\n    },\n    {\n      \"id\": \"753fc98f-d6d8-11e8-80d7-00155db4d016\",\n      \"priority\": 0,\n      \"closed\": false\n    },\n    {\n      \"id\": \"753fc978-d6d8-11e8-80d7-00155db4d016\",\n      \"priority\": 0,\n      \"closed\": false\n    },\n    {\n      \"id\": \"753fc985-d6d8-11e8-80d7-00155db4d016\",\n      \"priority\": 0,\n      \"closed\": false\n    },\n    {\n      \"id\": \"766f2497-cc67-11e8-80d6-00155db4d016\",\n      \"priority\": 1,\n      \"closed\": false\n    },\n    {\n      \"id\": \"753fc482-d6d8-11e8-80d7-00155db4d016\",\n      \"priority\": 0,\n      \"closed\": false\n    },\n    {\n      \"id\": \"753fcd3e-d6d8-11e8-80d7-00155db4d016\",\n      \"priority\": 0,\n      \"closed\": false\n    },\n    {\n      \"id\": \"753fc848-d6d8-11e8-80d7-00155db4d016\",\n      \"priority\": 0,\n      \"closed\": false\n    },\n    {\n      \"id\": \"0c0c7a07-d6d3-11e8-80d7-00155db4d016\",\n      \"priority\": 0,\n      \"closed\": false\n    },\n    {\n      \"id\": \"753fc95d-d6d8-11e8-80d7-00155db4d016\",\n      \"priority\": 0,\n      \"closed\": false\n    },\n    {\n      \"id\": \"753fc236-d6d8-11e8-80d7-00155db4d016\",\n      \"priority\": 0,\n      \"closed\": false\n    },\n    {\n      \"id\": \"753fc562-d6d8-11e8-80d7-00155db4d016\",\n      \"priority\": 0,\n      \"closed\": false\n    },\n    {\n      \"id\": \"d201b750-cc67-11e8-80d6-00155db4d016\",\n      \"priority\": 2,\n      \"closed\": false\n    }\n  ],\n  \"cars\": [\n    {\n      \"available_count\": 1,\n      \"cost_km\": 11,\n      \"cost_point\": 250,\n      \"cost_trip\": 500,\n      \"id\": \"7f882221-6024-11e5-80ba-00155d65b108\",\n      \"num_nights\": 1,\n      \"percent_overweight\": 0.05,\n      \"speed_city\": 20,\n      \"speed_highway\": 60,\n      \"start_time_after_relax\": 28800,\n      \"time_from\": 0,\n      \"time_to\": 79200,\n      \"weight\": 1500,\n      \"volume\": 13.57,\n      \"passes\": []\n    },\n    {\n      \"available_count\": 1,\n      \"cost_km\": 13,\n      \"cost_point\": 250,\n      \"cost_trip\": 660,\n      \"id\": \"a4f7c074-d3cb-11e5-80bb-00155d65b108\",\n      \"num_nights\": 1,\n      \"percent_overweight\": 0.05,\n      \"speed_city\": 20,\n      \"speed_highway\": 60,\n      \"start_time_after_relax\": 28800,\n      \"time_from\": 0,\n      \"time_to\": 79200,\n      \"weight\": 2000,\n      \"volume\": 19.5,\n      \"passes\": []\n    },\n    {\n      \"available_count\": 1,\n      \"cost_km\": 11,\n      \"cost_point\": 250,\n      \"cost_trip\": 500,\n      \"id\": \"7aee6252-8325-11e7-80c3-00155d4c3726\",\n      \"num_nights\": 1,\n      \"percent_overweight\": 0.05,\n      \"speed_city\": 20,\n      \"speed_highway\": 60,\n      \"start_time_after_relax\": 28800,\n      \"time_from\": 0,\n      \"time_to\": 79200,\n      \"weight\": 1500,\n      \"volume\": 11.367,\n      \"passes\": []\n    },\n    {\n      \"available_count\": 1,\n      \"cost_km\": 13,\n      \"cost_point\": 250,\n      \"cost_trip\": 660,\n      \"id\": \"89dc81be-9157-11e7-80c3-00155d4c3726\",\n      \"num_nights\": 1,\n      \"percent_overweight\": 0.05,\n      \"speed_city\": 20,\n      \"speed_highway\": 60,\n      \"start_time_after_relax\": 28800,\n      \"time_from\": 0,\n      \"time_to\": 79200,\n      \"weight\": 1500,\n      \"volume\": 15.43,\n      \"passes\": []\n    },\n    {\n      \"available_count\": 1,\n      \"cost_km\": 11,\n      \"cost_point\": 250,\n      \"cost_trip\": 500,\n      \"id\": \"d1825a20-cf5c-11e7-80c7-00155d65762b\",\n      \"num_nights\": 1,\n      \"percent_overweight\": 0.05,\n      \"speed_city\": 20,\n      \"speed_highway\": 60,\n      \"start_time_after_relax\": 28800,\n      \"time_from\": 0,\n      \"time_to\": 79200,\n      \"weight\": 1500,\n      \"volume\": 15.862,\n      \"passes\": []\n    },\n    {\n      \"available_count\": 1,\n      \"cost_km\": 13,\n      \"cost_point\": 250,\n      \"cost_trip\": 660,\n      \"id\": \"f13673fa-803d-11e8-80cd-00155db4d054\",\n      \"num_nights\": 1,\n      \"percent_overweight\": 0.05,\n      \"speed_city\": 20,\n      \"speed_highway\": 60,\n      \"start_time_after_relax\": 28800,\n      \"time_from\": 0,\n      \"time_to\": 79200,\n      \"weight\": 1600,\n      \"volume\": 15.93,\n      \"passes\": []\n    },\n    {\n      \"available_count\": 1,\n      \"cost_km\": 13,\n      \"cost_point\": 250,\n      \"cost_trip\": 660,\n      \"id\": \"f5a91e1c-af63-11e8-80d0-00155d4c3758\",\n      \"num_nights\": 1,\n      \"percent_overweight\": 0.05,\n      \"speed_city\": 20,\n      \"speed_highway\": 60,\n      \"start_time_after_relax\": 28800,\n      \"time_from\": 0,\n      \"time_to\": 79200,\n      \"weight\": 3000,\n      \"volume\": 17.388,\n      \"passes\": []\n    },\n    {\n      \"available_count\": 1,\n      \"cost_km\": 14.5,\n      \"cost_point\": 350,\n      \"cost_trip\": 880,\n      \"id\": \"9b4e4f5b-b0d1-11e8-80d0-00155d4c3758\",\n      \"num_nights\": 1,\n      \"percent_overweight\": 0.05,\n      \"speed_city\": 20,\n      \"speed_highway\": 60,\n      \"start_time_after_relax\": 28800,\n      \"time_from\": 0,\n      \"time_to\": 79200,\n      \"weight\": 2000,\n      \"volume\": 19.274,\n      \"passes\": [\n        \"11f37d9e-d74f-11e8-80d7-00155db4d016\",\n        \"56868c68-d748-11e8-80d7-00155db4d016\",\n        \"11f37d9f-d74f-11e8-80d7-00155db4d016\",\n        \"11f37da0-d74f-11e8-80d7-00155db4d016\"\n      ]\n    },\n    {\n      \"available_count\": 1,\n      \"cost_km\": 13,\n      \"cost_point\": 250,\n      \"cost_trip\": 660,\n      \"id\": \"58136b3c-c6d6-11e8-80d0-00155d4c3758\",\n      \"num_nights\": 1,\n      \"percent_overweight\": 0.05,\n      \"speed_city\": 20,\n      \"speed_highway\": 60,\n      \"start_time_after_relax\": 28800,\n      \"time_from\": 0,\n      \"time_to\": 79200,\n      \"weight\": 1130,\n      \"volume\": 14.538,\n      \"passes\": []\n    },\n    {\n      \"available_count\": 1,\n      \"cost_km\": 11,\n      \"cost_point\": 250,\n      \"cost_trip\": 500,\n      \"id\": \"670eec40-ee8e-11e6-80d0-00155d65bc08\",\n      \"num_nights\": 1,\n      \"percent_overweight\": 0.05,\n      \"speed_city\": 20,\n      \"speed_highway\": 60,\n      \"start_time_after_relax\": 28800,\n      \"time_from\": 0,\n      \"time_to\": 79200,\n      \"weight\": 1450,\n      \"volume\": 12.5,\n      \"passes\": []\n    },\n    {\n      \"available_count\": 1,\n      \"cost_km\": 11,\n      \"cost_point\": 250,\n      \"cost_trip\": 500,\n      \"id\": \"f67bc530-185d-11e7-80d3-00155d65bc08\",\n      \"num_nights\": 1,\n      \"percent_overweight\": 0.05,\n      \"speed_city\": 20,\n      \"speed_highway\": 60,\n      \"start_time_after_relax\": 28800,\n      \"time_from\": 0,\n      \"time_to\": 79200,\n      \"weight\": 1500,\n      \"volume\": 15.392,\n      \"passes\": []\n    },\n    {\n      \"available_count\": 1,\n      \"cost_km\": 13,\n      \"cost_point\": 250,\n      \"cost_trip\": 660,\n      \"id\": \"b93676d4-a6a2-11e4-9407-984be16afda3\",\n      \"num_nights\": 1,\n      \"percent_overweight\": 0.05,\n      \"speed_city\": 20,\n      \"speed_highway\": 60,\n      \"start_time_after_relax\": 28800,\n      \"time_from\": 0,\n      \"time_to\": 79200,\n      \"weight\": 1500,\n      \"volume\": 14.7,\n      \"passes\": []\n    },\n    {\n      \"available_count\": 1,\n      \"cost_km\": 11,\n      \"cost_point\": 250,\n      \"cost_trip\": 500,\n      \"id\": \"9e3fbd6d-ab65-11e4-9407-984be16afda3\",\n      \"num_nights\": 1,\n      \"percent_overweight\": 0.05,\n      \"speed_city\": 20,\n      \"speed_highway\": 60,\n      \"start_time_after_relax\": 28800,\n      \"time_from\": 0,\n      \"time_to\": 79200,\n      \"weight\": 2000,\n      \"volume\": 15,\n      \"passes\": [\n        \"11f37d9e-d74f-11e8-80d7-00155db4d016\"\n      ]\n    }\n  ]\n}"
			},
			"created": 1540891142641,
			"description": "",
			"headers": [
				{
					"id": "pair_e438be428bf14d57af5d1f559dccac91",
					"name": "Content-Type",
					"value": "application/json"
				}
			],
			"isPrivate": false,
			"metaSortKey": -1535267833858.625,
			"method": "POST",
			"modified": 1541848189885,
			"name": "расчёт челябинск 149 точек",
			"parameters": [],
			"parentId": "wrk_098cf67eff4d4732806ec1d12731ee37",
			"settingDisableRenderRequestBody": false,
			"settingEncodeUrl": true,
			"settingMaxTimelineDataSize": 1000,
			"settingRebuildPath": true,
			"settingSendCookies": true,
			"settingStoreCookies": true,
			"url": "http://10.30.37.132:19000/optimal_plan",
			"_type": "request"
		},
		{
			"_id": "req_45a56d1784e24fdd9297365b2d7bc839",
			"authentication": {},
			"body": {},
			"created": 1541763521164,
			"description": "",
			"headers": [],
			"isPrivate": false,
			"metaSortKey": -1541763521164,
			"method": "GET",
			"modified": 1541848186273,
			"name": "статистика по ресурсам",
			"parameters": [],
			"parentId": "wrk_098cf67eff4d4732806ec1d12731ee37",
			"settingDisableRenderRequestBody": false,
			"settingEncodeUrl": true,
			"settingMaxTimelineDataSize": 1000,
			"settingRebuildPath": true,
			"settingSendCookies": true,
			"settingStoreCookies": true,
			"url": "http://10.30.37.132:19000/stats",
			"_type": "request"
		}
	]
}